
add.bin:     file format elf32-bigmips


Disassembly of section .text:

00000000 <_start>:
   0:	241d0000 	li	sp,0
   4:	3c1d03ff 	lui	sp,0x3ff
   8:	0c000006 	jal	18 <.pic.main>
   c:	00000000 	nop
	...

00000018 <.pic.main>:
  18:	3c190000 	lui	t9,0x0
  1c:	27390020 	addiu	t9,t9,32

00000020 <main>:
  20:	24080005 	li	t0,5
  24:	2409fff6 	li	t1,-10
  28:	240a0006 	li	t2,6
  2c:	240b0014 	li	t3,20
  30:	240c0019 	li	t4,25
  34:	01096820 	add	t5,t0,t1
  38:	408db800 	mtc0	t5,c0_debug
  3c:	01aa7020 	add	t6,t5,t2
  40:	408eb800 	mtc0	t6,c0_debug
  44:	016c6820 	add	t5,t3,t4
  48:	408db800 	mtc0	t5,c0_debug
  4c:	01ae7020 	add	t6,t5,t6
  50:	408eb800 	mtc0	t6,c0_debug
  54:	01c87820 	add	t7,t6,t0
  58:	408fc800 	mtc0	t7,c0_perfcnt
  5c:	00000000 	nop

00000060 <repeat>:
  60:	08000018 	j	60 <repeat>
  64:	00000000 	nop

Disassembly of section .reginfo:

00000068 <.reginfo>:
  68:	20000001 	addi	zero,zero,1
	...

Disassembly of section .MIPS.abiflags:

00000080 <.MIPS.abiflags>:
  80:	00002002 	srl	a0,zero,0x0
  84:	01010001 	movt	zero,t0,$fcc0
	...
  90:	00000001 	movf	zero,zero,$fcc0
  94:	00000000 	nop
