241d0000
3c1d03ff
0c000006
00000000
00000000
00000000
3c190000
27390020
24080005
2409fff6
240a0006
240b0014
240c0019
01096820
408db800
01aa7020
408eb800
016c6820
408db800
01ae7020
408eb800
01c87820
408fc800
00000000
08000018
00000000
20000001
00000000
00000000
00000000
00000000
00000000
00002002
01010001
00000000
00000000
00000001
00000000
