
fannkuch.bin:     file format elf32-bigmips


Disassembly of section .text:

00000000 <_start>:
   0:	24010000 	li	at,0
   4:	24020000 	li	v0,0
   8:	24030000 	li	v1,0
   c:	24040000 	li	a0,0
  10:	24050000 	li	a1,0
  14:	24060000 	li	a2,0
  18:	24070000 	li	a3,0
  1c:	24080000 	li	t0,0
  20:	24090000 	li	t1,0
  24:	240a0000 	li	t2,0
  28:	240b0000 	li	t3,0
  2c:	240c0000 	li	t4,0
  30:	240d0000 	li	t5,0
  34:	240e0000 	li	t6,0
  38:	240f0000 	li	t7,0
  3c:	24100000 	li	s0,0
  40:	24110000 	li	s1,0
  44:	24120000 	li	s2,0
  48:	24130000 	li	s3,0
  4c:	24140000 	li	s4,0
  50:	24150000 	li	s5,0
  54:	24160000 	li	s6,0
  58:	24170000 	li	s7,0
  5c:	24180000 	li	t8,0
  60:	24190000 	li	t9,0
  64:	241a0000 	li	k0,0
  68:	241b0000 	li	k1,0
  6c:	241c0000 	li	gp,0
  70:	241d0000 	li	sp,0
  74:	241e0000 	li	s8,0
  78:	241f0000 	li	ra,0
  7c:	3c1d03ff 	lui	sp,0x3ff
  80:	0c0000ee 	jal	3b8 <main>
  84:	00000000 	nop
  88:	4080c800 	mtc0	zero,$25

0000008c <repeat>:
  8c:	08000023 	j	8c <repeat>
  90:	00000000 	nop
	...

000000a0 <flip>:
  a0:	27bdfff8 	addiu	sp,sp,-8
  a4:	afbf0004 	sw	ra,4(sp)
  a8:	afbe0000 	sw	s8,0(sp)
  ac:	03a0f025 	move	s8,sp
  b0:	3c010000 	lui	at,0x0
  b4:	8c2205ac 	lw	v0,1452(at)
  b8:	1040000b 	beqz	v0,e8 <flip+0x48>
  bc:	00000000 	nop
  c0:	3c010000 	lui	at,0x0
  c4:	2423052c 	addiu	v1,at,1324
  c8:	3c010000 	lui	at,0x0
  cc:	2424056c 	addiu	a0,at,1388
  d0:	8c810000 	lw	at,0(a0)
  d4:	ac610000 	sw	at,0(v1)
  d8:	24630004 	addiu	v1,v1,4
  dc:	2442ffff 	addiu	v0,v0,-1
  e0:	1440fffb 	bnez	v0,d0 <flip+0x30>
  e4:	24840004 	addiu	a0,a0,4
  e8:	3c030000 	lui	v1,0x0
  ec:	8c64052c 	lw	a0,1324(v1)
  f0:	08000045 	j	114 <flip+0x74>
  f4:	24020001 	li	v0,1
  f8:	8c64052c 	lw	a0,1324(v1)
  fc:	00040880 	sll	at,a0,0x2
 100:	2465052c 	addiu	a1,v1,1324
 104:	00a10821 	addu	at,a1,at
 108:	8c210000 	lw	at,0(at)
 10c:	10200019 	beqz	at,174 <flip+0xd4>
 110:	24420001 	addiu	v0,v0,1
 114:	1880fff9 	blez	a0,fc <flip+0x5c>
 118:	00000000 	nop
 11c:	00040880 	sll	at,a0,0x2
 120:	2465052c 	addiu	a1,v1,1324
 124:	00a10821 	addu	at,a1,at
 128:	8c260000 	lw	a2,0(at)
 12c:	ac66052c 	sw	a2,1324(v1)
 130:	ac240000 	sw	a0,0(at)
 134:	2424fffc 	addiu	a0,at,-4
 138:	24a10004 	addiu	at,a1,4
 13c:	0024082b 	sltu	at,at,a0
 140:	1020ffed 	beqz	at,f8 <flip+0x58>
 144:	00000000 	nop
 148:	24a50008 	addiu	a1,a1,8
 14c:	8ca1fffc 	lw	at,-4(a1)
 150:	8c860000 	lw	a2,0(a0)
 154:	aca6fffc 	sw	a2,-4(a1)
 158:	ac810000 	sw	at,0(a0)
 15c:	2484fffc 	addiu	a0,a0,-4
 160:	00a4082b 	sltu	at,a1,a0
 164:	1420fff9 	bnez	at,14c <flip+0xac>
 168:	24a50004 	addiu	a1,a1,4
 16c:	0800003e 	j	f8 <flip+0x58>
 170:	00000000 	nop
 174:	03c0e825 	move	sp,s8
 178:	8fbe0000 	lw	s8,0(sp)
 17c:	8fbf0004 	lw	ra,4(sp)
 180:	03e00008 	jr	ra
 184:	27bd0008 	addiu	sp,sp,8

00000188 <tk>:
 188:	27bdff98 	addiu	sp,sp,-104
 18c:	afbf0064 	sw	ra,100(sp)
 190:	afbe0060 	sw	s8,96(sp)
 194:	afb2005c 	sw	s2,92(sp)
 198:	afb10058 	sw	s1,88(sp)
 19c:	afb00054 	sw	s0,84(sp)
 1a0:	03a0f025 	move	s8,sp
 1a4:	00808025 	move	s0,a0
 1a8:	27d10014 	addiu	s1,s8,20
 1ac:	24120000 	li	s2,0
 1b0:	02202025 	move	a0,s1
 1b4:	24050000 	li	a1,0
 1b8:	0c000120 	jal	480 <memset>
 1bc:	24060040 	li	a2,64
 1c0:	1a000075 	blez	s0,398 <tk+0x210>
 1c4:	00000000 	nop
 1c8:	3c010000 	lui	at,0x0
 1cc:	8c2205ac 	lw	v0,1452(at)
 1d0:	2443ffff 	addiu	v1,v0,-1
 1d4:	3c040000 	lui	a0,0x0
 1d8:	3c050000 	lui	a1,0x0
 1dc:	3c060000 	lui	a2,0x0
 1e0:	2407ffff 	li	a3,-1
 1e4:	3c080000 	lui	t0,0x0
 1e8:	08000081 	j	204 <tk+0x7c>
 1ec:	3c090000 	lui	t1,0x0
 1f0:	ad400000 	sw	zero,0(t2)
 1f4:	26520001 	addiu	s2,s2,1
 1f8:	0250082a 	slt	at,s2,s0
 1fc:	10200066 	beqz	at,398 <tk+0x210>
 200:	00000000 	nop
 204:	8c8a056c 	lw	t2,1388(a0)
 208:	1a400009 	blez	s2,230 <tk+0xa8>
 20c:	00000000 	nop
 210:	2481056c 	addiu	at,a0,1388
 214:	242b0004 	addiu	t3,at,4
 218:	02406025 	move	t4,s2
 21c:	8d610000 	lw	at,0(t3)
 220:	ad61fffc 	sw	at,-4(t3)
 224:	258cffff 	addiu	t4,t4,-1
 228:	1580fffc 	bnez	t4,21c <tk+0x94>
 22c:	256b0004 	addiu	t3,t3,4
 230:	00120880 	sll	at,s2,0x2
 234:	248b056c 	addiu	t3,a0,1388
 238:	01615821 	addu	t3,t3,at
 23c:	ad6a0000 	sw	t2,0(t3)
 240:	02215021 	addu	t2,s1,at
 244:	8d4b0000 	lw	t3,0(t2)
 248:	0172082a 	slt	at,t3,s2
 24c:	1020ffe8 	beqz	at,1f0 <tk+0x68>
 250:	00000000 	nop
 254:	25610001 	addiu	at,t3,1
 258:	ad410000 	sw	at,0(t2)
 25c:	8caa0524 	lw	t2,1316(a1)
 260:	01400827 	nor	at,t2,zero
 264:	aca10524 	sw	at,1316(a1)
 268:	8c8b056c 	lw	t3,1388(a0)
 26c:	11600038 	beqz	t3,350 <tk+0x1c8>
 270:	00000000 	nop
 274:	000b0880 	sll	at,t3,0x2
 278:	248c056c 	addiu	t4,a0,1388
 27c:	01810821 	addu	at,t4,at
 280:	8c210000 	lw	at,0(at)
 284:	10200034 	beqz	at,358 <tk+0x1d0>
 288:	00000000 	nop
 28c:	1040000e 	beqz	v0,2c8 <tk+0x140>
 290:	00000000 	nop
 294:	1060000c 	beqz	v1,2c8 <tk+0x140>
 298:	ad2b052c 	sw	t3,1324(t1)
 29c:	2481056c 	addiu	at,a0,1388
 2a0:	242b0004 	addiu	t3,at,4
 2a4:	2521052c 	addiu	at,t1,1324
 2a8:	242c0004 	addiu	t4,at,4
 2ac:	00606825 	move	t5,v1
 2b0:	8d610000 	lw	at,0(t3)
 2b4:	ad810000 	sw	at,0(t4)
 2b8:	258c0004 	addiu	t4,t4,4
 2bc:	25adffff 	addiu	t5,t5,-1
 2c0:	15a0fffb 	bnez	t5,2b0 <tk+0x128>
 2c4:	256b0004 	addiu	t3,t3,4
 2c8:	8d2c052c 	lw	t4,1324(t1)
 2cc:	080000bb 	j	2ec <tk+0x164>
 2d0:	240b0001 	li	t3,1
 2d4:	000c0880 	sll	at,t4,0x2
 2d8:	252d052c 	addiu	t5,t1,1324
 2dc:	01a10821 	addu	at,t5,at
 2e0:	8c210000 	lw	at,0(at)
 2e4:	1020001d 	beqz	at,35c <tk+0x1d4>
 2e8:	256b0001 	addiu	t3,t3,1
 2ec:	1980fff9 	blez	t4,2d4 <tk+0x14c>
 2f0:	00000000 	nop
 2f4:	000c0880 	sll	at,t4,0x2
 2f8:	252e052c 	addiu	t6,t1,1324
 2fc:	01c10821 	addu	at,t6,at
 300:	8c2f0000 	lw	t7,0(at)
 304:	ad2f052c 	sw	t7,1324(t1)
 308:	ac2c0000 	sw	t4,0(at)
 30c:	242dfffc 	addiu	t5,at,-4
 310:	25c10004 	addiu	at,t6,4
 314:	002d082b 	sltu	at,at,t5
 318:	1020ffee 	beqz	at,2d4 <tk+0x14c>
 31c:	01e06025 	move	t4,t7
 320:	25cc0008 	addiu	t4,t6,8
 324:	8d81fffc 	lw	at,-4(t4)
 328:	8dae0000 	lw	t6,0(t5)
 32c:	ad8efffc 	sw	t6,-4(t4)
 330:	ada10000 	sw	at,0(t5)
 334:	25adfffc 	addiu	t5,t5,-4
 338:	018d082b 	sltu	at,t4,t5
 33c:	1420fff9 	bnez	at,324 <tk+0x19c>
 340:	258c0004 	addiu	t4,t4,4
 344:	8d2c052c 	lw	t4,1324(t1)
 348:	080000b5 	j	2d4 <tk+0x14c>
 34c:	00000000 	nop
 350:	0800007e 	j	1f8 <tk+0x70>
 354:	24120001 	li	s2,1
 358:	240b0001 	li	t3,1
 35c:	8cc10520 	lw	at,1312(a2)
 360:	002b082a 	slt	at,at,t3
 364:	10200002 	beqz	at,370 <tk+0x1e8>
 368:	00000000 	nop
 36c:	accb0520 	sw	t3,1312(a2)
 370:	01470826 	xor	at,t2,a3
 374:	2c210001 	sltiu	at,at,1
 378:	14200002 	bnez	at,384 <tk+0x1fc>
 37c:	00000000 	nop
 380:	000b5823 	negu	t3,t3
 384:	8d010528 	lw	at,1320(t0)
 388:	002b0821 	addu	at,at,t3
 38c:	ad010528 	sw	at,1320(t0)
 390:	0800007e 	j	1f8 <tk+0x70>
 394:	24120001 	li	s2,1
 398:	03c0e825 	move	sp,s8
 39c:	8fb00054 	lw	s0,84(sp)
 3a0:	8fb10058 	lw	s1,88(sp)
 3a4:	8fb2005c 	lw	s2,92(sp)
 3a8:	8fbe0060 	lw	s8,96(sp)
 3ac:	8fbf0064 	lw	ra,100(sp)
 3b0:	03e00008 	jr	ra
 3b4:	27bd0068 	addiu	sp,sp,104

000003b8 <main>:
 3b8:	27bdffe8 	addiu	sp,sp,-24
 3bc:	afbf0014 	sw	ra,20(sp)
 3c0:	afbe0010 	sw	s8,16(sp)
 3c4:	03a0f025 	move	s8,sp
 3c8:	3c010000 	lui	at,0x0
 3cc:	2422056c 	addiu	v0,at,1388
 3d0:	24030004 	li	v1,4
 3d4:	24040005 	li	a0,5
 3d8:	24050006 	li	a1,6
 3dc:	24060007 	li	a2,7
 3e0:	3c070000 	lui	a3,0x0
 3e4:	24080008 	li	t0,8
 3e8:	ace805ac 	sw	t0,1452(a3)
 3ec:	ac46001c 	sw	a2,28(v0)
 3f0:	ac450018 	sw	a1,24(v0)
 3f4:	ac440014 	sw	a0,20(v0)
 3f8:	ac430010 	sw	v1,16(v0)
 3fc:	24030003 	li	v1,3
 400:	ac43000c 	sw	v1,12(v0)
 404:	24030002 	li	v1,2
 408:	ac430008 	sw	v1,8(v0)
 40c:	24030001 	li	v1,1
 410:	ac430004 	sw	v1,4(v0)
 414:	ac20056c 	sw	zero,1388(at)
 418:	0c000062 	jal	188 <tk>
 41c:	24040008 	li	a0,8
 420:	3c010000 	lui	at,0x0
 424:	8c220528 	lw	v0,1320(at)
 428:	24030650 	li	v1,1616
 42c:	14430004 	bne	v0,v1,440 <main+0x88>
 430:	00000000 	nop
 434:	4083b800 	mtc0	v1,$23
 438:	08000111 	j	444 <main+0x8c>
 43c:	00000000 	nop
 440:	4082c000 	mtc0	v0,$24
 444:	3c010000 	lui	at,0x0
 448:	8c220520 	lw	v0,1312(at)
 44c:	24030016 	li	v1,22
 450:	14430004 	bne	v0,v1,464 <main+0xac>
 454:	00000000 	nop
 458:	4083b800 	mtc0	v1,$23
 45c:	0800011a 	j	468 <main+0xb0>
 460:	00000000 	nop
 464:	4082c000 	mtc0	v0,$24
 468:	24020000 	li	v0,0
 46c:	03c0e825 	move	sp,s8
 470:	8fbe0010 	lw	s8,16(sp)
 474:	8fbf0014 	lw	ra,20(sp)
 478:	03e00008 	jr	ra
 47c:	27bd0018 	addiu	sp,sp,24

Disassembly of section .text.memset:

00000480 <memset>:
 480:	30c10003 	andi	at,a2,0x3
 484:	10200004 	beqz	at,498 <memset+0x18>
 488:	00000000 	nop
 48c:	3c011234 	lui	at,0x1234
 490:	34225678 	ori	v0,at,0x5678
 494:	4082c000 	mtc0	v0,$24
 498:	27bdfff8 	addiu	sp,sp,-8
 49c:	afbf0004 	sw	ra,4(sp)
 4a0:	afbe0000 	sw	s8,0(sp)
 4a4:	03a0f025 	move	s8,sp
 4a8:	2cc10004 	sltiu	at,a2,4
 4ac:	1420000d 	bnez	at,4e4 <memset+0x64>
 4b0:	00000000 	nop
 4b4:	00050a00 	sll	at,a1,0x8
 4b8:	00250821 	addu	at,at,a1
 4bc:	00051400 	sll	v0,a1,0x10
 4c0:	00410821 	addu	at,v0,at
 4c4:	00051600 	sll	v0,a1,0x18
 4c8:	00411021 	addu	v0,v0,at
 4cc:	00061882 	srl	v1,a2,0x2
 4d0:	00802825 	move	a1,a0
 4d4:	aca20000 	sw	v0,0(a1)
 4d8:	2463ffff 	addiu	v1,v1,-1
 4dc:	1460fffd 	bnez	v1,4d4 <memset+0x54>
 4e0:	24a50004 	addiu	a1,a1,4
 4e4:	00801025 	move	v0,a0
 4e8:	03c0e825 	move	sp,s8
 4ec:	8fbe0000 	lw	s8,0(sp)
 4f0:	8fbf0004 	lw	ra,4(sp)
 4f4:	03e00008 	jr	ra
 4f8:	27bd0008 	addiu	sp,sp,8

Disassembly of section .MIPS.abiflags:

00000500 <.MIPS.abiflags>:
 500:	00000200 	sll	zero,zero,0x8
 504:	01010001 	0x1010001
	...
 510:	00000001 	0x1
 514:	00000000 	nop

Disassembly of section .bss:

00000520 <maxflips>:
 520:	00000000 	nop

00000524 <odd>:
 524:	00000000 	nop

00000528 <checksum>:
 528:	00000000 	nop

0000052c <t>:
	...

0000056c <s>:
	...

000005ac <max_n>:
 5ac:	00000000 	nop

Disassembly of section .comment:

00000000 <.comment>:
   0:	636c616e 	0x636c616e
   4:	67207665 	0x67207665
   8:	7273696f 	0x7273696f
   c:	6e203133 	0x6e203133
  10:	2e302e31 	sltiu	s0,s1,11825
	...
